%YAML 1.1
%TAG !u! tag:unity3d.com,2011:
--- !u!1 &4553507333484610433
GameObject:
  m_ObjectHideFlags: 0
  m_CorrespondingSourceObject: {fileID: 0}
  m_PrefabInstance: {fileID: 0}
  m_PrefabAsset: {fileID: 0}
  serializedVersion: 6
  m_Component:
  - component: {fileID: 6171707730619233126}
  - component: {fileID: 7558492738475777807}
  - component: {fileID: 4399346844051129889}
  m_Layer: 0
  m_Name: Layer1
  m_TagString: Untagged
  m_Icon: {fileID: 0}
  m_NavMeshLayer: 0
  m_StaticEditorFlags: 0
  m_IsActive: 1
--- !u!4 &6171707730619233126
Transform:
  m_ObjectHideFlags: 0
  m_CorrespondingSourceObject: {fileID: 0}
  m_PrefabInstance: {fileID: 0}
  m_PrefabAsset: {fileID: 0}
  m_GameObject: {fileID: 4553507333484610433}
  m_LocalRotation: {x: -0, y: -0, z: -0, w: 1}
  m_LocalPosition: {x: 0, y: 0, z: 0}
  m_LocalScale: {x: 1, y: 1, z: 1}
  m_ConstrainProportionsScale: 0
  m_Children: []
  m_Father: {fileID: 6627367663701524034}
  m_RootOrder: 0
  m_LocalEulerAnglesHint: {x: 0, y: 0, z: 0}
--- !u!1839735485 &7558492738475777807
Tilemap:
  m_ObjectHideFlags: 0
  m_CorrespondingSourceObject: {fileID: 0}
  m_PrefabInstance: {fileID: 0}
  m_PrefabAsset: {fileID: 0}
  m_GameObject: {fileID: 4553507333484610433}
  m_Enabled: 1
  m_Tiles:
  - first: {x: -1, y: 5, z: 0}
    second:
      serializedVersion: 2
      m_TileIndex: 108
      m_TileSpriteIndex: 108
      m_TileMatrixIndex: 0
      m_TileColorIndex: 0
      m_TileObjectToInstantiateIndex: 65535
      dummyAlignment: 0
      m_AllTileFlags: 1073741825
  - first: {x: 0, y: 5, z: 0}
    second:
      serializedVersion: 2
      m_TileIndex: 109
      m_TileSpriteIndex: 109
      m_TileMatrixIndex: 0
      m_TileColorIndex: 0
      m_TileObjectToInstantiateIndex: 65535
      dummyAlignment: 0
      m_AllTileFlags: 1073741825
  - first: {x: 1, y: 5, z: 0}
    second:
      serializedVersion: 2
      m_TileIndex: 110
      m_TileSpriteIndex: 110
      m_TileMatrixIndex: 0
      m_TileColorIndex: 0
      m_TileObjectToInstantiateIndex: 65535
      dummyAlignment: 0
      m_AllTileFlags: 1073741825
  - first: {x: 2, y: 5, z: 0}
    second:
      serializedVersion: 2
      m_TileIndex: 111
      m_TileSpriteIndex: 111
      m_TileMatrixIndex: 0
      m_TileColorIndex: 0
      m_TileObjectToInstantiateIndex: 65535
      dummyAlignment: 0
      m_AllTileFlags: 1073741825
  - first: {x: 3, y: 5, z: 0}
    second:
      serializedVersion: 2
      m_TileIndex: 112
      m_TileSpriteIndex: 112
      m_TileMatrixIndex: 0
      m_TileColorIndex: 0
      m_TileObjectToInstantiateIndex: 65535
      dummyAlignment: 0
      m_AllTileFlags: 1073741825
  - first: {x: 6, y: 5, z: 0}
    second:
      serializedVersion: 2
      m_TileIndex: 113
      m_TileSpriteIndex: 113
      m_TileMatrixIndex: 0
      m_TileColorIndex: 0
      m_TileObjectToInstantiateIndex: 65535
      dummyAlignment: 0
      m_AllTileFlags: 1073741825
  - first: {x: 7, y: 5, z: 0}
    second:
      serializedVersion: 2
      m_TileIndex: 114
      m_TileSpriteIndex: 114
      m_TileMatrixIndex: 0
      m_TileColorIndex: 0
      m_TileObjectToInstantiateIndex: 65535
      dummyAlignment: 0
      m_AllTileFlags: 1073741825
  - first: {x: 8, y: 5, z: 0}
    second:
      serializedVersion: 2
      m_TileIndex: 115
      m_TileSpriteIndex: 115
      m_TileMatrixIndex: 0
      m_TileColorIndex: 0
      m_TileObjectToInstantiateIndex: 65535
      dummyAlignment: 0
      m_AllTileFlags: 1073741825
  - first: {x: 9, y: 5, z: 0}
    second:
      serializedVersion: 2
      m_TileIndex: 116
      m_TileSpriteIndex: 116
      m_TileMatrixIndex: 0
      m_TileColorIndex: 0
      m_TileObjectToInstantiateIndex: 65535
      dummyAlignment: 0
      m_AllTileFlags: 1073741825
  - first: {x: -1, y: 6, z: 0}
    second:
      serializedVersion: 2
      m_TileIndex: 97
      m_TileSpriteIndex: 97
      m_TileMatrixIndex: 0
      m_TileColorIndex: 0
      m_TileObjectToInstantiateIndex: 65535
      dummyAlignment: 0
      m_AllTileFlags: 1073741825
  - first: {x: 0, y: 6, z: 0}
    second:
      serializedVersion: 2
      m_TileIndex: 98
      m_TileSpriteIndex: 98
      m_TileMatrixIndex: 0
      m_TileColorIndex: 0
      m_TileObjectToInstantiateIndex: 65535
      dummyAlignment: 0
      m_AllTileFlags: 1073741825
  - first: {x: 1, y: 6, z: 0}
    second:
      serializedVersion: 2
      m_TileIndex: 99
      m_TileSpriteIndex: 99
      m_TileMatrixIndex: 0
      m_TileColorIndex: 0
      m_TileObjectToInstantiateIndex: 65535
      dummyAlignment: 0
      m_AllTileFlags: 1073741825
  - first: {x: 2, y: 6, z: 0}
    second:
      serializedVersion: 2
      m_TileIndex: 100
      m_TileSpriteIndex: 100
      m_TileMatrixIndex: 0
      m_TileColorIndex: 0
      m_TileObjectToInstantiateIndex: 65535
      dummyAlignment: 0
      m_AllTileFlags: 1073741825
  - first: {x: 3, y: 6, z: 0}
    second:
      serializedVersion: 2
      m_TileIndex: 101
      m_TileSpriteIndex: 101
      m_TileMatrixIndex: 0
      m_TileColorIndex: 0
      m_TileObjectToInstantiateIndex: 65535
      dummyAlignment: 0
      m_AllTileFlags: 1073741825
  - first: {x: 4, y: 6, z: 0}
    second:
      serializedVersion: 2
      m_TileIndex: 102
      m_TileSpriteIndex: 102
      m_TileMatrixIndex: 0
      m_TileColorIndex: 0
      m_TileObjectToInstantiateIndex: 65535
      dummyAlignment: 0
      m_AllTileFlags: 1073741825
  - first: {x: 5, y: 6, z: 0}
    second:
      serializedVersion: 2
      m_TileIndex: 103
      m_TileSpriteIndex: 103
      m_TileMatrixIndex: 0
      m_TileColorIndex: 0
      m_TileObjectToInstantiateIndex: 65535
      dummyAlignment: 0
      m_AllTileFlags: 1073741825
  - first: {x: 6, y: 6, z: 0}
    second:
      serializedVersion: 2
      m_TileIndex: 104
      m_TileSpriteIndex: 104
      m_TileMatrixIndex: 0
      m_TileColorIndex: 0
      m_TileObjectToInstantiateIndex: 65535
      dummyAlignment: 0
      m_AllTileFlags: 1073741825
  - first: {x: 7, y: 6, z: 0}
    second:
      serializedVersion: 2
      m_TileIndex: 105
      m_TileSpriteIndex: 105
      m_TileMatrixIndex: 0
      m_TileColorIndex: 0
      m_TileObjectToInstantiateIndex: 65535
      dummyAlignment: 0
      m_AllTileFlags: 1073741825
  - first: {x: 8, y: 6, z: 0}
    second:
      serializedVersion: 2
      m_TileIndex: 106
      m_TileSpriteIndex: 106
      m_TileMatrixIndex: 0
      m_TileColorIndex: 0
      m_TileObjectToInstantiateIndex: 65535
      dummyAlignment: 0
      m_AllTileFlags: 1073741825
  - first: {x: 9, y: 6, z: 0}
    second:
      serializedVersion: 2
      m_TileIndex: 107
      m_TileSpriteIndex: 107
      m_TileMatrixIndex: 0
      m_TileColorIndex: 0
      m_TileObjectToInstantiateIndex: 65535
      dummyAlignment: 0
      m_AllTileFlags: 1073741825
  - first: {x: -1, y: 7, z: 0}
    second:
      serializedVersion: 2
      m_TileIndex: 86
      m_TileSpriteIndex: 86
      m_TileMatrixIndex: 0
      m_TileColorIndex: 0
      m_TileObjectToInstantiateIndex: 65535
      dummyAlignment: 0
      m_AllTileFlags: 1073741825
  - first: {x: 0, y: 7, z: 0}
    second:
      serializedVersion: 2
      m_TileIndex: 87
      m_TileSpriteIndex: 87
      m_TileMatrixIndex: 0
      m_TileColorIndex: 0
      m_TileObjectToInstantiateIndex: 65535
      dummyAlignment: 0
      m_AllTileFlags: 1073741825
  - first: {x: 1, y: 7, z: 0}
    second:
      serializedVersion: 2
      m_TileIndex: 88
      m_TileSpriteIndex: 88
      m_TileMatrixIndex: 0
      m_TileColorIndex: 0
      m_TileObjectToInstantiateIndex: 65535
      dummyAlignment: 0
      m_AllTileFlags: 1073741825
  - first: {x: 2, y: 7, z: 0}
    second:
      serializedVersion: 2
      m_TileIndex: 89
      m_TileSpriteIndex: 89
      m_TileMatrixIndex: 0
      m_TileColorIndex: 0
      m_TileObjectToInstantiateIndex: 65535
      dummyAlignment: 0
      m_AllTileFlags: 1073741825
  - first: {x: 3, y: 7, z: 0}
    second:
      serializedVersion: 2
      m_TileIndex: 90
      m_TileSpriteIndex: 90
      m_TileMatrixIndex: 0
      m_TileColorIndex: 0
      m_TileObjectToInstantiateIndex: 65535
      dummyAlignment: 0
      m_AllTileFlags: 1073741825
  - first: {x: 4, y: 7, z: 0}
    second:
      serializedVersion: 2
      m_TileIndex: 91
      m_TileSpriteIndex: 91
      m_TileMatrixIndex: 0
      m_TileColorIndex: 0
      m_TileObjectToInstantiateIndex: 65535
      dummyAlignment: 0
      m_AllTileFlags: 1073741825
  - first: {x: 5, y: 7, z: 0}
    second:
      serializedVersion: 2
      m_TileIndex: 92
      m_TileSpriteIndex: 92
      m_TileMatrixIndex: 0
      m_TileColorIndex: 0
      m_TileObjectToInstantiateIndex: 65535
      dummyAlignment: 0
      m_AllTileFlags: 1073741825
  - first: {x: 6, y: 7, z: 0}
    second:
      serializedVersion: 2
      m_TileIndex: 93
      m_TileSpriteIndex: 93
      m_TileMatrixIndex: 0
      m_TileColorIndex: 0
      m_TileObjectToInstantiateIndex: 65535
      dummyAlignment: 0
      m_AllTileFlags: 1073741825
  - first: {x: 7, y: 7, z: 0}
    second:
      serializedVersion: 2
      m_TileIndex: 94
      m_TileSpriteIndex: 94
      m_TileMatrixIndex: 0
      m_TileColorIndex: 0
      m_TileObjectToInstantiateIndex: 65535
      dummyAlignment: 0
      m_AllTileFlags: 1073741825
  - first: {x: 8, y: 7, z: 0}
    second:
      serializedVersion: 2
      m_TileIndex: 95
      m_TileSpriteIndex: 95
      m_TileMatrixIndex: 0
      m_TileColorIndex: 0
      m_TileObjectToInstantiateIndex: 65535
      dummyAlignment: 0
      m_AllTileFlags: 1073741825
  - first: {x: 9, y: 7, z: 0}
    second:
      serializedVersion: 2
      m_TileIndex: 96
      m_TileSpriteIndex: 96
      m_TileMatrixIndex: 0
      m_TileColorIndex: 0
      m_TileObjectToInstantiateIndex: 65535
      dummyAlignment: 0
      m_AllTileFlags: 1073741825
  - first: {x: -1, y: 8, z: 0}
    second:
      serializedVersion: 2
      m_TileIndex: 70
      m_TileSpriteIndex: 70
      m_TileMatrixIndex: 0
      m_TileColorIndex: 0
      m_TileObjectToInstantiateIndex: 65535
      dummyAlignment: 0
      m_AllTileFlags: 1073741825
  - first: {x: 0, y: 8, z: 0}
    second:
      serializedVersion: 2
      m_TileIndex: 71
      m_TileSpriteIndex: 71
      m_TileMatrixIndex: 0
      m_TileColorIndex: 0
      m_TileObjectToInstantiateIndex: 65535
      dummyAlignment: 0
      m_AllTileFlags: 1073741825
  - first: {x: 1, y: 8, z: 0}
    second:
      serializedVersion: 2
      m_TileIndex: 72
      m_TileSpriteIndex: 72
      m_TileMatrixIndex: 0
      m_TileColorIndex: 0
      m_TileObjectToInstantiateIndex: 65535
      dummyAlignment: 0
      m_AllTileFlags: 1073741825
  - first: {x: 2, y: 8, z: 0}
    second:
      serializedVersion: 2
      m_TileIndex: 73
      m_TileSpriteIndex: 73
      m_TileMatrixIndex: 0
      m_TileColorIndex: 0
      m_TileObjectToInstantiateIndex: 65535
      dummyAlignment: 0
      m_AllTileFlags: 1073741825
  - first: {x: 3, y: 8, z: 0}
    second:
      serializedVersion: 2
      m_TileIndex: 74
      m_TileSpriteIndex: 74
      m_TileMatrixIndex: 0
      m_TileColorIndex: 0
      m_TileObjectToInstantiateIndex: 65535
      dummyAlignment: 0
      m_AllTileFlags: 1073741825
  - first: {x: 4, y: 8, z: 0}
    second:
      serializedVersion: 2
      m_TileIndex: 75
      m_TileSpriteIndex: 75
      m_TileMatrixIndex: 0
      m_TileColorIndex: 0
      m_TileObjectToInstantiateIndex: 65535
      dummyAlignment: 0
      m_AllTileFlags: 1073741825
  - first: {x: 5, y: 8, z: 0}
    second:
      serializedVersion: 2
      m_TileIndex: 76
      m_TileSpriteIndex: 76
      m_TileMatrixIndex: 0
      m_TileColorIndex: 0
      m_TileObjectToInstantiateIndex: 65535
      dummyAlignment: 0
      m_AllTileFlags: 1073741825
  - first: {x: 6, y: 8, z: 0}
    second:
      serializedVersion: 2
      m_TileIndex: 77
      m_TileSpriteIndex: 77
      m_TileMatrixIndex: 0
      m_TileColorIndex: 0
      m_TileObjectToInstantiateIndex: 65535
      dummyAlignment: 0
      m_AllTileFlags: 1073741825
  - first: {x: 7, y: 8, z: 0}
    second:
      serializedVersion: 2
      m_TileIndex: 78
      m_TileSpriteIndex: 78
      m_TileMatrixIndex: 0
      m_TileColorIndex: 0
      m_TileObjectToInstantiateIndex: 65535
      dummyAlignment: 0
      m_AllTileFlags: 1073741825
  - first: {x: 8, y: 8, z: 0}
    second:
      serializedVersion: 2
      m_TileIndex: 79
      m_TileSpriteIndex: 79
      m_TileMatrixIndex: 0
      m_TileColorIndex: 0
      m_TileObjectToInstantiateIndex: 65535
      dummyAlignment: 0
      m_AllTileFlags: 1073741825
  - first: {x: 9, y: 8, z: 0}
    second:
      serializedVersion: 2
      m_TileIndex: 80
      m_TileSpriteIndex: 80
      m_TileMatrixIndex: 0
      m_TileColorIndex: 0
      m_TileObjectToInstantiateIndex: 65535
      dummyAlignment: 0
      m_AllTileFlags: 1073741825
  - first: {x: 10, y: 8, z: 0}
    second:
      serializedVersion: 2
      m_TileIndex: 81
      m_TileSpriteIndex: 81
      m_TileMatrixIndex: 0
      m_TileColorIndex: 0
      m_TileObjectToInstantiateIndex: 65535
      dummyAlignment: 0
      m_AllTileFlags: 1073741825
  - first: {x: 11, y: 8, z: 0}
    second:
      serializedVersion: 2
      m_TileIndex: 82
      m_TileSpriteIndex: 82
      m_TileMatrixIndex: 0
      m_TileColorIndex: 0
      m_TileObjectToInstantiateIndex: 65535
      dummyAlignment: 0
      m_AllTileFlags: 1073741825
  - first: {x: 12, y: 8, z: 0}
    second:
      serializedVersion: 2
      m_TileIndex: 83
      m_TileSpriteIndex: 83
      m_TileMatrixIndex: 0
      m_TileColorIndex: 0
      m_TileObjectToInstantiateIndex: 65535
      dummyAlignment: 0
      m_AllTileFlags: 1073741825
  - first: {x: 13, y: 8, z: 0}
    second:
      serializedVersion: 2
      m_TileIndex: 84
      m_TileSpriteIndex: 84
      m_TileMatrixIndex: 0
      m_TileColorIndex: 0
      m_TileObjectToInstantiateIndex: 65535
      dummyAlignment: 0
      m_AllTileFlags: 1073741825
  - first: {x: 14, y: 8, z: 0}
    second:
      serializedVersion: 2
      m_TileIndex: 85
      m_TileSpriteIndex: 85
      m_TileMatrixIndex: 0
      m_TileColorIndex: 0
      m_TileObjectToInstantiateIndex: 65535
      dummyAlignment: 0
      m_AllTileFlags: 1073741825
  - first: {x: -1, y: 9, z: 0}
    second:
      serializedVersion: 2
      m_TileIndex: 54
      m_TileSpriteIndex: 54
      m_TileMatrixIndex: 0
      m_TileColorIndex: 0
      m_TileObjectToInstantiateIndex: 65535
      dummyAlignment: 0
      m_AllTileFlags: 1073741825
  - first: {x: 0, y: 9, z: 0}
    second:
      serializedVersion: 2
      m_TileIndex: 55
      m_TileSpriteIndex: 55
      m_TileMatrixIndex: 0
      m_TileColorIndex: 0
      m_TileObjectToInstantiateIndex: 65535
      dummyAlignment: 0
      m_AllTileFlags: 1073741825
  - first: {x: 1, y: 9, z: 0}
    second:
      serializedVersion: 2
      m_TileIndex: 56
      m_TileSpriteIndex: 56
      m_TileMatrixIndex: 0
      m_TileColorIndex: 0
      m_TileObjectToInstantiateIndex: 65535
      dummyAlignment: 0
      m_AllTileFlags: 1073741825
  - first: {x: 2, y: 9, z: 0}
    second:
      serializedVersion: 2
      m_TileIndex: 57
      m_TileSpriteIndex: 57
      m_TileMatrixIndex: 0
      m_TileColorIndex: 0
      m_TileObjectToInstantiateIndex: 65535
      dummyAlignment: 0
      m_AllTileFlags: 1073741825
  - first: {x: 3, y: 9, z: 0}
    second:
      serializedVersion: 2
      m_TileIndex: 58
      m_TileSpriteIndex: 58
      m_TileMatrixIndex: 0
      m_TileColorIndex: 0
      m_TileObjectToInstantiateIndex: 65535
      dummyAlignment: 0
      m_AllTileFlags: 1073741825
  - first: {x: 4, y: 9, z: 0}
    second:
      serializedVersion: 2
      m_TileIndex: 59
      m_TileSpriteIndex: 59
      m_TileMatrixIndex: 0
      m_TileColorIndex: 0
      m_TileObjectToInstantiateIndex: 65535
      dummyAlignment: 0
      m_AllTileFlags: 1073741825
  - first: {x: 5, y: 9, z: 0}
    second:
      serializedVersion: 2
      m_TileIndex: 60
      m_TileSpriteIndex: 60
      m_TileMatrixIndex: 0
      m_TileColorIndex: 0
      m_TileObjectToInstantiateIndex: 65535
      dummyAlignment: 0
      m_AllTileFlags: 1073741825
  - first: {x: 6, y: 9, z: 0}
    second:
      serializedVersion: 2
      m_TileIndex: 61
      m_TileSpriteIndex: 61
      m_TileMatrixIndex: 0
      m_TileColorIndex: 0
      m_TileObjectToInstantiateIndex: 65535
      dummyAlignment: 0
      m_AllTileFlags: 1073741825
  - first: {x: 7, y: 9, z: 0}
    second:
      serializedVersion: 2
      m_TileIndex: 62
      m_TileSpriteIndex: 62
      m_TileMatrixIndex: 0
      m_TileColorIndex: 0
      m_TileObjectToInstantiateIndex: 65535
      dummyAlignment: 0
      m_AllTileFlags: 1073741825
  - first: {x: 8, y: 9, z: 0}
    second:
      serializedVersion: 2
      m_TileIndex: 63
      m_TileSpriteIndex: 63
      m_TileMatrixIndex: 0
      m_TileColorIndex: 0
      m_TileObjectToInstantiateIndex: 65535
      dummyAlignment: 0
      m_AllTileFlags: 1073741825
  - first: {x: 9, y: 9, z: 0}
    second:
      serializedVersion: 2
      m_TileIndex: 64
      m_TileSpriteIndex: 64
      m_TileMatrixIndex: 0
      m_TileColorIndex: 0
      m_TileObjectToInstantiateIndex: 65535
      dummyAlignment: 0
      m_AllTileFlags: 1073741825
  - first: {x: 10, y: 9, z: 0}
    second:
      serializedVersion: 2
      m_TileIndex: 65
      m_TileSpriteIndex: 65
      m_TileMatrixIndex: 0
      m_TileColorIndex: 0
      m_TileObjectToInstantiateIndex: 65535
      dummyAlignment: 0
      m_AllTileFlags: 1073741825
  - first: {x: 11, y: 9, z: 0}
    second:
      serializedVersion: 2
      m_TileIndex: 66
      m_TileSpriteIndex: 66
      m_TileMatrixIndex: 0
      m_TileColorIndex: 0
      m_TileObjectToInstantiateIndex: 65535
      dummyAlignment: 0
      m_AllTileFlags: 1073741825
  - first: {x: 12, y: 9, z: 0}
    second:
      serializedVersion: 2
      m_TileIndex: 67
      m_TileSpriteIndex: 67
      m_TileMatrixIndex: 0
      m_TileColorIndex: 0
      m_TileObjectToInstantiateIndex: 65535
      dummyAlignment: 0
      m_AllTileFlags: 1073741825
  - first: {x: 13, y: 9, z: 0}
    second:
      serializedVersion: 2
      m_TileIndex: 68
      m_TileSpriteIndex: 68
      m_TileMatrixIndex: 0
      m_TileColorIndex: 0
      m_TileObjectToInstantiateIndex: 65535
      dummyAlignment: 0
      m_AllTileFlags: 1073741825
  - first: {x: 14, y: 9, z: 0}
    second:
      serializedVersion: 2
      m_TileIndex: 69
      m_TileSpriteIndex: 69
      m_TileMatrixIndex: 0
      m_TileColorIndex: 0
      m_TileObjectToInstantiateIndex: 65535
      dummyAlignment: 0
      m_AllTileFlags: 1073741825
  - first: {x: -1, y: 10, z: 0}
    second:
      serializedVersion: 2
      m_TileIndex: 38
      m_TileSpriteIndex: 38
      m_TileMatrixIndex: 0
      m_TileColorIndex: 0
      m_TileObjectToInstantiateIndex: 65535
      dummyAlignment: 0
      m_AllTileFlags: 1073741825
  - first: {x: 0, y: 10, z: 0}
    second:
      serializedVersion: 2
      m_TileIndex: 39
      m_TileSpriteIndex: 39
      m_TileMatrixIndex: 0
      m_TileColorIndex: 0
      m_TileObjectToInstantiateIndex: 65535
      dummyAlignment: 0
      m_AllTileFlags: 1073741825
  - first: {x: 1, y: 10, z: 0}
    second:
      serializedVersion: 2
      m_TileIndex: 40
      m_TileSpriteIndex: 40
      m_TileMatrixIndex: 0
      m_TileColorIndex: 0
      m_TileObjectToInstantiateIndex: 65535
      dummyAlignment: 0
      m_AllTileFlags: 1073741825
  - first: {x: 2, y: 10, z: 0}
    second:
      serializedVersion: 2
      m_TileIndex: 41
      m_TileSpriteIndex: 41
      m_TileMatrixIndex: 0
      m_TileColorIndex: 0
      m_TileObjectToInstantiateIndex: 65535
      dummyAlignment: 0
      m_AllTileFlags: 1073741825
  - first: {x: 3, y: 10, z: 0}
    second:
      serializedVersion: 2
      m_TileIndex: 42
      m_TileSpriteIndex: 42
      m_TileMatrixIndex: 0
      m_TileColorIndex: 0
      m_TileObjectToInstantiateIndex: 65535
      dummyAlignment: 0
      m_AllTileFlags: 1073741825
  - first: {x: 4, y: 10, z: 0}
    second:
      serializedVersion: 2
      m_TileIndex: 43
      m_TileSpriteIndex: 43
      m_TileMatrixIndex: 0
      m_TileColorIndex: 0
      m_TileObjectToInstantiateIndex: 65535
      dummyAlignment: 0
      m_AllTileFlags: 1073741825
  - first: {x: 5, y: 10, z: 0}
    second:
      serializedVersion: 2
      m_TileIndex: 44
      m_TileSpriteIndex: 44
      m_TileMatrixIndex: 0
      m_TileColorIndex: 0
      m_TileObjectToInstantiateIndex: 65535
      dummyAlignment: 0
      m_AllTileFlags: 1073741825
  - first: {x: 6, y: 10, z: 0}
    second:
      serializedVersion: 2
      m_TileIndex: 45
      m_TileSpriteIndex: 45
      m_TileMatrixIndex: 0
      m_TileColorIndex: 0
      m_TileObjectToInstantiateIndex: 65535
      dummyAlignment: 0
      m_AllTileFlags: 1073741825
  - first: {x: 7, y: 10, z: 0}
    second:
      serializedVersion: 2
      m_TileIndex: 46
      m_TileSpriteIndex: 46
      m_TileMatrixIndex: 0
      m_TileColorIndex: 0
      m_TileObjectToInstantiateIndex: 65535
      dummyAlignment: 0
      m_AllTileFlags: 1073741825
  - first: {x: 8, y: 10, z: 0}
    second:
      serializedVersion: 2
      m_TileIndex: 47
      m_TileSpriteIndex: 47
      m_TileMatrixIndex: 0
      m_TileColorIndex: 0
      m_TileObjectToInstantiateIndex: 65535
      dummyAlignment: 0
      m_AllTileFlags: 1073741825
  - first: {x: 9, y: 10, z: 0}
    second:
      serializedVersion: 2
      m_TileIndex: 48
      m_TileSpriteIndex: 48
      m_TileMatrixIndex: 0
      m_TileColorIndex: 0
      m_TileObjectToInstantiateIndex: 65535
      dummyAlignment: 0
      m_AllTileFlags: 1073741825
  - first: {x: 10, y: 10, z: 0}
    second:
      serializedVersion: 2
      m_TileIndex: 49
      m_TileSpriteIndex: 49
      m_TileMatrixIndex: 0
      m_TileColorIndex: 0
      m_TileObjectToInstantiateIndex: 65535
      dummyAlignment: 0
      m_AllTileFlags: 1073741825
  - first: {x: 11, y: 10, z: 0}
    second:
      serializedVersion: 2
      m_TileIndex: 50
      m_TileSpriteIndex: 50
      m_TileMatrixIndex: 0
      m_TileColorIndex: 0
      m_TileObjectToInstantiateIndex: 65535
      dummyAlignment: 0
      m_AllTileFlags: 1073741825
  - first: {x: 12, y: 10, z: 0}
    second:
      serializedVersion: 2
      m_TileIndex: 51
      m_TileSpriteIndex: 51
      m_TileMatrixIndex: 0
      m_TileColorIndex: 0
      m_TileObjectToInstantiateIndex: 65535
      dummyAlignment: 0
      m_AllTileFlags: 1073741825
  - first: {x: 13, y: 10, z: 0}
    second:
      serializedVersion: 2
      m_TileIndex: 52
      m_TileSpriteIndex: 52
      m_TileMatrixIndex: 0
      m_TileColorIndex: 0
      m_TileObjectToInstantiateIndex: 65535
      dummyAlignment: 0
      m_AllTileFlags: 1073741825
  - first: {x: 14, y: 10, z: 0}
    second:
      serializedVersion: 2
      m_TileIndex: 53
      m_TileSpriteIndex: 53
      m_TileMatrixIndex: 0
      m_TileColorIndex: 0
      m_TileObjectToInstantiateIndex: 65535
      dummyAlignment: 0
      m_AllTileFlags: 1073741825
  - first: {x: -1, y: 11, z: 0}
    second:
      serializedVersion: 2
      m_TileIndex: 30
      m_TileSpriteIndex: 30
      m_TileMatrixIndex: 0
      m_TileColorIndex: 0
      m_TileObjectToInstantiateIndex: 65535
      dummyAlignment: 0
      m_AllTileFlags: 1073741825
  - first: {x: 0, y: 11, z: 0}
    second:
      serializedVersion: 2
      m_TileIndex: 31
      m_TileSpriteIndex: 31
      m_TileMatrixIndex: 0
      m_TileColorIndex: 0
      m_TileObjectToInstantiateIndex: 65535
      dummyAlignment: 0
      m_AllTileFlags: 1073741825
  - first: {x: 1, y: 11, z: 0}
    second:
      serializedVersion: 2
      m_TileIndex: 32
      m_TileSpriteIndex: 32
      m_TileMatrixIndex: 0
      m_TileColorIndex: 0
      m_TileObjectToInstantiateIndex: 65535
      dummyAlignment: 0
      m_AllTileFlags: 1073741825
  - first: {x: 2, y: 11, z: 0}
    second:
      serializedVersion: 2
      m_TileIndex: 33
      m_TileSpriteIndex: 33
      m_TileMatrixIndex: 0
      m_TileColorIndex: 0
      m_TileObjectToInstantiateIndex: 65535
      dummyAlignment: 0
      m_AllTileFlags: 1073741825
  - first: {x: 3, y: 11, z: 0}
    second:
      serializedVersion: 2
      m_TileIndex: 34
      m_TileSpriteIndex: 34
      m_TileMatrixIndex: 0
      m_TileColorIndex: 0
      m_TileObjectToInstantiateIndex: 65535
      dummyAlignment: 0
      m_AllTileFlags: 1073741825
  - first: {x: 4, y: 11, z: 0}
    second:
      serializedVersion: 2
      m_TileIndex: 35
      m_TileSpriteIndex: 35
      m_TileMatrixIndex: 0
      m_TileColorIndex: 0
      m_TileObjectToInstantiateIndex: 65535
      dummyAlignment: 0
      m_AllTileFlags: 1073741825
  - first: {x: 5, y: 11, z: 0}
    second:
      serializedVersion: 2
      m_TileIndex: 36
      m_TileSpriteIndex: 36
      m_TileMatrixIndex: 0
      m_TileColorIndex: 0
      m_TileObjectToInstantiateIndex: 65535
      dummyAlignment: 0
      m_AllTileFlags: 1073741825
  - first: {x: 6, y: 11, z: 0}
    second:
      serializedVersion: 2
      m_TileIndex: 37
      m_TileSpriteIndex: 37
      m_TileMatrixIndex: 0
      m_TileColorIndex: 0
      m_TileObjectToInstantiateIndex: 65535
      dummyAlignment: 0
      m_AllTileFlags: 1073741825
  - first: {x: -1, y: 12, z: 0}
    second:
      serializedVersion: 2
      m_TileIndex: 20
      m_TileSpriteIndex: 20
      m_TileMatrixIndex: 0
      m_TileColorIndex: 0
      m_TileObjectToInstantiateIndex: 65535
      dummyAlignment: 0
      m_AllTileFlags: 1073741825
  - first: {x: 0, y: 12, z: 0}
    second:
      serializedVersion: 2
      m_TileIndex: 21
      m_TileSpriteIndex: 21
      m_TileMatrixIndex: 0
      m_TileColorIndex: 0
      m_TileObjectToInstantiateIndex: 65535
      dummyAlignment: 0
      m_AllTileFlags: 1073741825
  - first: {x: 1, y: 12, z: 0}
    second:
      serializedVersion: 2
      m_TileIndex: 22
      m_TileSpriteIndex: 22
      m_TileMatrixIndex: 0
      m_TileColorIndex: 0
      m_TileObjectToInstantiateIndex: 65535
      dummyAlignment: 0
      m_AllTileFlags: 1073741825
  - first: {x: 2, y: 12, z: 0}
    second:
      serializedVersion: 2
      m_TileIndex: 23
      m_TileSpriteIndex: 23
      m_TileMatrixIndex: 0
      m_TileColorIndex: 0
      m_TileObjectToInstantiateIndex: 65535
      dummyAlignment: 0
      m_AllTileFlags: 1073741825
  - first: {x: 3, y: 12, z: 0}
    second:
      serializedVersion: 2
      m_TileIndex: 24
      m_TileSpriteIndex: 24
      m_TileMatrixIndex: 0
      m_TileColorIndex: 0
      m_TileObjectToInstantiateIndex: 65535
      dummyAlignment: 0
      m_AllTileFlags: 1073741825
  - first: {x: 4, y: 12, z: 0}
    second:
      serializedVersion: 2
      m_TileIndex: 25
      m_TileSpriteIndex: 25
      m_TileMatrixIndex: 0
      m_TileColorIndex: 0
      m_TileObjectToInstantiateIndex: 65535
      dummyAlignment: 0
      m_AllTileFlags: 1073741825
  - first: {x: 5, y: 12, z: 0}
    second:
      serializedVersion: 2
      m_TileIndex: 26
      m_TileSpriteIndex: 26
      m_TileMatrixIndex: 0
      m_TileColorIndex: 0
      m_TileObjectToInstantiateIndex: 65535
      dummyAlignment: 0
      m_AllTileFlags: 1073741825
  - first: {x: 6, y: 12, z: 0}
    second:
      serializedVersion: 2
      m_TileIndex: 27
      m_TileSpriteIndex: 27
      m_TileMatrixIndex: 0
      m_TileColorIndex: 0
      m_TileObjectToInstantiateIndex: 65535
      dummyAlignment: 0
      m_AllTileFlags: 1073741825
  - first: {x: 7, y: 12, z: 0}
    second:
      serializedVersion: 2
      m_TileIndex: 28
      m_TileSpriteIndex: 28
      m_TileMatrixIndex: 0
      m_TileColorIndex: 0
      m_TileObjectToInstantiateIndex: 65535
      dummyAlignment: 0
      m_AllTileFlags: 1073741825
  - first: {x: 8, y: 12, z: 0}
    second:
      serializedVersion: 2
      m_TileIndex: 29
      m_TileSpriteIndex: 29
      m_TileMatrixIndex: 0
      m_TileColorIndex: 0
      m_TileObjectToInstantiateIndex: 65535
      dummyAlignment: 0
      m_AllTileFlags: 1073741825
  - first: {x: -1, y: 13, z: 0}
    second:
      serializedVersion: 2
      m_TileIndex: 10
      m_TileSpriteIndex: 10
      m_TileMatrixIndex: 0
      m_TileColorIndex: 0
      m_TileObjectToInstantiateIndex: 65535
      dummyAlignment: 0
      m_AllTileFlags: 1073741825
  - first: {x: 0, y: 13, z: 0}
    second:
      serializedVersion: 2
      m_TileIndex: 11
      m_TileSpriteIndex: 11
      m_TileMatrixIndex: 0
      m_TileColorIndex: 0
      m_TileObjectToInstantiateIndex: 65535
      dummyAlignment: 0
      m_AllTileFlags: 1073741825
  - first: {x: 1, y: 13, z: 0}
    second:
      serializedVersion: 2
      m_TileIndex: 12
      m_TileSpriteIndex: 12
      m_TileMatrixIndex: 0
      m_TileColorIndex: 0
      m_TileObjectToInstantiateIndex: 65535
      dummyAlignment: 0
      m_AllTileFlags: 1073741825
  - first: {x: 2, y: 13, z: 0}
    second:
      serializedVersion: 2
      m_TileIndex: 13
      m_TileSpriteIndex: 13
      m_TileMatrixIndex: 0
      m_TileColorIndex: 0
      m_TileObjectToInstantiateIndex: 65535
      dummyAlignment: 0
      m_AllTileFlags: 1073741825
  - first: {x: 3, y: 13, z: 0}
    second:
      serializedVersion: 2
      m_TileIndex: 14
      m_TileSpriteIndex: 14
      m_TileMatrixIndex: 0
      m_TileColorIndex: 0
      m_TileObjectToInstantiateIndex: 65535
      dummyAlignment: 0
      m_AllTileFlags: 1073741825
  - first: {x: 4, y: 13, z: 0}
    second:
      serializedVersion: 2
      m_TileIndex: 15
      m_TileSpriteIndex: 15
      m_TileMatrixIndex: 0
      m_TileColorIndex: 0
      m_TileObjectToInstantiateIndex: 65535
      dummyAlignment: 0
      m_AllTileFlags: 1073741825
  - first: {x: 5, y: 13, z: 0}
    second:
      serializedVersion: 2
      m_TileIndex: 16
      m_TileSpriteIndex: 16
      m_TileMatrixIndex: 0
      m_TileColorIndex: 0
      m_TileObjectToInstantiateIndex: 65535
      dummyAlignment: 0
      m_AllTileFlags: 1073741825
  - first: {x: 6, y: 13, z: 0}
    second:
      serializedVersion: 2
      m_TileIndex: 17
      m_TileSpriteIndex: 17
      m_TileMatrixIndex: 0
      m_TileColorIndex: 0
      m_TileObjectToInstantiateIndex: 65535
      dummyAlignment: 0
      m_AllTileFlags: 1073741825
  - first: {x: 7, y: 13, z: 0}
    second:
      serializedVersion: 2
      m_TileIndex: 18
      m_TileSpriteIndex: 18
      m_TileMatrixIndex: 0
      m_TileColorIndex: 0
      m_TileObjectToInstantiateIndex: 65535
      dummyAlignment: 0
      m_AllTileFlags: 1073741825
  - first: {x: 8, y: 13, z: 0}
    second:
      serializedVersion: 2
      m_TileIndex: 19
      m_TileSpriteIndex: 19
      m_TileMatrixIndex: 0
      m_TileColorIndex: 0
      m_TileObjectToInstantiateIndex: 65535
      dummyAlignment: 0
      m_AllTileFlags: 1073741825
  - first: {x: -1, y: 14, z: 0}
    second:
      serializedVersion: 2
      m_TileIndex: 0
      m_TileSpriteIndex: 0
      m_TileMatrixIndex: 0
      m_TileColorIndex: 0
      m_TileObjectToInstantiateIndex: 65535
      dummyAlignment: 0
      m_AllTileFlags: 1073741825
  - first: {x: 0, y: 14, z: 0}
    second:
      serializedVersion: 2
      m_TileIndex: 1
      m_TileSpriteIndex: 1
      m_TileMatrixIndex: 0
      m_TileColorIndex: 0
      m_TileObjectToInstantiateIndex: 65535
      dummyAlignment: 0
      m_AllTileFlags: 1073741825
  - first: {x: 1, y: 14, z: 0}
    second:
      serializedVersion: 2
      m_TileIndex: 2
      m_TileSpriteIndex: 2
      m_TileMatrixIndex: 0
      m_TileColorIndex: 0
      m_TileObjectToInstantiateIndex: 65535
      dummyAlignment: 0
      m_AllTileFlags: 1073741825
  - first: {x: 2, y: 14, z: 0}
    second:
      serializedVersion: 2
      m_TileIndex: 3
      m_TileSpriteIndex: 3
      m_TileMatrixIndex: 0
      m_TileColorIndex: 0
      m_TileObjectToInstantiateIndex: 65535
      dummyAlignment: 0
      m_AllTileFlags: 1073741825
  - first: {x: 3, y: 14, z: 0}
    second:
      serializedVersion: 2
      m_TileIndex: 4
      m_TileSpriteIndex: 4
      m_TileMatrixIndex: 0
      m_TileColorIndex: 0
      m_TileObjectToInstantiateIndex: 65535
      dummyAlignment: 0
      m_AllTileFlags: 1073741825
  - first: {x: 4, y: 14, z: 0}
    second:
      serializedVersion: 2
      m_TileIndex: 5
      m_TileSpriteIndex: 5
      m_TileMatrixIndex: 0
      m_TileColorIndex: 0
      m_TileObjectToInstantiateIndex: 65535
      dummyAlignment: 0
      m_AllTileFlags: 1073741825
  - first: {x: 5, y: 14, z: 0}
    second:
      serializedVersion: 2
      m_TileIndex: 6
      m_TileSpriteIndex: 6
      m_TileMatrixIndex: 0
      m_TileColorIndex: 0
      m_TileObjectToInstantiateIndex: 65535
      dummyAlignment: 0
      m_AllTileFlags: 1073741825
  - first: {x: 6, y: 14, z: 0}
    second:
      serializedVersion: 2
      m_TileIndex: 7
      m_TileSpriteIndex: 7
      m_TileMatrixIndex: 0
      m_TileColorIndex: 0
      m_TileObjectToInstantiateIndex: 65535
      dummyAlignment: 0
      m_AllTileFlags: 1073741825
  - first: {x: 7, y: 14, z: 0}
    second:
      serializedVersion: 2
      m_TileIndex: 8
      m_TileSpriteIndex: 8
      m_TileMatrixIndex: 0
      m_TileColorIndex: 0
      m_TileObjectToInstantiateIndex: 65535
      dummyAlignment: 0
      m_AllTileFlags: 1073741825
  - first: {x: 8, y: 14, z: 0}
    second:
      serializedVersion: 2
      m_TileIndex: 9
      m_TileSpriteIndex: 9
      m_TileMatrixIndex: 0
      m_TileColorIndex: 0
      m_TileObjectToInstantiateIndex: 65535
      dummyAlignment: 0
      m_AllTileFlags: 1073741825
  m_AnimatedTiles: {}
  m_TileAssetArray:
  - m_RefCount: 1
    m_Data: {fileID: 11400000, guid: c1f898ee80601b6428e6299864151def, type: 2}
  - m_RefCount: 1
    m_Data: {fileID: 11400000, guid: 8e7f99854d00279409667f54581f7f4b, type: 2}
  - m_RefCount: 1
    m_Data: {fileID: 11400000, guid: 7feac8226dee5044da76f6d729ef0ed5, type: 2}
  - m_RefCount: 1
    m_Data: {fileID: 11400000, guid: 089462a615a44704a9955fd313c61069, type: 2}
  - m_RefCount: 1
    m_Data: {fileID: 11400000, guid: 959ed2a7dc49dab44a5131217770fc66, type: 2}
  - m_RefCount: 1
    m_Data: {fileID: 11400000, guid: 04b3e6baef5528c43a991defd704439f, type: 2}
  - m_RefCount: 1
    m_Data: {fileID: 11400000, guid: e44dcd982c91ab94896868f9fe0edd17, type: 2}
  - m_RefCount: 1
    m_Data: {fileID: 11400000, guid: 45eb497c99caf6f40bf176898da78a09, type: 2}
  - m_RefCount: 1
    m_Data: {fileID: 11400000, guid: 880017aefead11541b04261f95b5a495, type: 2}
  - m_RefCount: 1
    m_Data: {fileID: 11400000, guid: 81d8e9478a403fc47844a137ea24bc6f, type: 2}
  - m_RefCount: 1
    m_Data: {fileID: 11400000, guid: b66cb2e51eeade14d8a458b9523a0ada, type: 2}
  - m_RefCount: 1
    m_Data: {fileID: 11400000, guid: 5ba2ffaf99171c1419ae0a0fbc266dd6, type: 2}
  - m_RefCount: 1
    m_Data: {fileID: 11400000, guid: 4422477de8e88284ea865accd3d66c72, type: 2}
  - m_RefCount: 1
    m_Data: {fileID: 11400000, guid: b6cbbe2520ffff24d99207468c4173f4, type: 2}
  - m_RefCount: 1
    m_Data: {fileID: 11400000, guid: 9e97016e0153d0c49ac1a1d93c41a130, type: 2}
  - m_RefCount: 1
    m_Data: {fileID: 11400000, guid: ce95a247a29057f4294b66b53e84a647, type: 2}
  - m_RefCount: 1
    m_Data: {fileID: 11400000, guid: 5d50ad8d8142d5248b35bd191a0af322, type: 2}
  - m_RefCount: 1
    m_Data: {fileID: 11400000, guid: 518d373e553a03441a53c723402cd5db, type: 2}
  - m_RefCount: 1
    m_Data: {fileID: 11400000, guid: 9fc1fa1cfff633149a9c6b8403a6bdde, type: 2}
  - m_RefCount: 1
    m_Data: {fileID: 11400000, guid: 39ca87015cfc1744d8909e0da739da2c, type: 2}
  - m_RefCount: 1
    m_Data: {fileID: 11400000, guid: 3cdb6901dbdaaa842a8271e9e47346e8, type: 2}
  - m_RefCount: 1
    m_Data: {fileID: 11400000, guid: bd57f97de1a997b4889667dfa2a94965, type: 2}
  - m_RefCount: 1
    m_Data: {fileID: 11400000, guid: 4915571ca90935e41b373742d22687bd, type: 2}
  - m_RefCount: 1
    m_Data: {fileID: 11400000, guid: c31953e5d31f7494fb6623e9dc36b1a8, type: 2}
  - m_RefCount: 1
    m_Data: {fileID: 11400000, guid: 22aeb2fe7435fe84aaaa404db15bce8e, type: 2}
  - m_RefCount: 1
    m_Data: {fileID: 11400000, guid: 9f21b80540b4406449548d1b460ae4eb, type: 2}
  - m_RefCount: 1
    m_Data: {fileID: 11400000, guid: d9b11cc8dafa1464c9766ae691fcaed0, type: 2}
  - m_RefCount: 1
    m_Data: {fileID: 11400000, guid: f711bfca2ee51de4eb144053024b3550, type: 2}
  - m_RefCount: 1
    m_Data: {fileID: 11400000, guid: 5c4e4beca7593204ba086dff9244727a, type: 2}
  - m_RefCount: 1
    m_Data: {fileID: 11400000, guid: 836ec035f681763469667b8eb94caade, type: 2}
  - m_RefCount: 1
    m_Data: {fileID: 11400000, guid: b6c0d84c71d242c4fb819a6eac201a0e, type: 2}
  - m_RefCount: 1
    m_Data: {fileID: 11400000, guid: ddacc4e71e89aae43a320df19a675d16, type: 2}
  - m_RefCount: 1
    m_Data: {fileID: 11400000, guid: 74bdbedde4b3e9347bda3466bc10b14e, type: 2}
  - m_RefCount: 1
    m_Data: {fileID: 11400000, guid: 5df101084f4b84d4c947515443fd4c1e, type: 2}
  - m_RefCount: 1
    m_Data: {fileID: 11400000, guid: 5ff1a4c40db76a540a069a56c441ba83, type: 2}
  - m_RefCount: 1
    m_Data: {fileID: 11400000, guid: 22573ed6c2fe96f48b4e7b4693e9b7ff, type: 2}
  - m_RefCount: 1
    m_Data: {fileID: 11400000, guid: 266332be5541e2446adba9df228f3c3f, type: 2}
  - m_RefCount: 1
    m_Data: {fileID: 11400000, guid: 7051c2d4f7542704cb7f560793b02911, type: 2}
  - m_RefCount: 1
    m_Data: {fileID: 11400000, guid: 777ad8bf384eace49ad631dc55ce7097, type: 2}
  - m_RefCount: 1
    m_Data: {fileID: 11400000, guid: b26466b31c2db7d4e96d948297718d92, type: 2}
  - m_RefCount: 1
    m_Data: {fileID: 11400000, guid: ef34ae29b7f78d7419d60b4c68fdaf6e, type: 2}
  - m_RefCount: 1
    m_Data: {fileID: 11400000, guid: addc63a982b3ee4429298d03b9b6c648, type: 2}
  - m_RefCount: 1
    m_Data: {fileID: 11400000, guid: de4a7b3eb9d8d1347a7f44b25d8e5334, type: 2}
  - m_RefCount: 1
    m_Data: {fileID: 11400000, guid: 943f34c663525e644be8c0fbe7c123c9, type: 2}
  - m_RefCount: 1
    m_Data: {fileID: 11400000, guid: 6140c7ab9a4ea2b489161549fe4d466b, type: 2}
  - m_RefCount: 1
    m_Data: {fileID: 11400000, guid: 47c3fb7f49ebea7438ce22f382796a0c, type: 2}
  - m_RefCount: 1
    m_Data: {fileID: 11400000, guid: cb2dcfcca618bf9409c02a086af3fa4e, type: 2}
  - m_RefCount: 1
    m_Data: {fileID: 11400000, guid: d6bc9a0dcf7e2ee48bf6bc51215fe8de, type: 2}
  - m_RefCount: 1
    m_Data: {fileID: 11400000, guid: c4f4d3bcff73ae64da38bdf1667385d6, type: 2}
  - m_RefCount: 1
    m_Data: {fileID: 11400000, guid: 4f89fe2f05a78834894d3eecc5efbbdc, type: 2}
  - m_RefCount: 1
    m_Data: {fileID: 11400000, guid: fdf5000f70d09f248a0d2855b11b118b, type: 2}
  - m_RefCount: 1
    m_Data: {fileID: 11400000, guid: a3ff55057055c8449b026aef642d613f, type: 2}
  - m_RefCount: 1
    m_Data: {fileID: 11400000, guid: 2e01d193d56abd042890a9ffab2d8cc4, type: 2}
  - m_RefCount: 1
    m_Data: {fileID: 11400000, guid: d89d2c8d41b7c8941abac4361f5d9cde, type: 2}
  - m_RefCount: 1
    m_Data: {fileID: 11400000, guid: 21f8ba66297573947a3b036dab815591, type: 2}
  - m_RefCount: 1
    m_Data: {fileID: 11400000, guid: 0e2976d78154b6f4da727a408d308cd1, type: 2}
  - m_RefCount: 1
    m_Data: {fileID: 11400000, guid: a2897c57f7d7e544faafb7dc64da96d7, type: 2}
  - m_RefCount: 1
    m_Data: {fileID: 11400000, guid: 688f8527258090f4f85419e718a59bd8, type: 2}
  - m_RefCount: 1
    m_Data: {fileID: 11400000, guid: 452d0e119232bf247818148f77127f3d, type: 2}
  - m_RefCount: 1
    m_Data: {fileID: 11400000, guid: a9ce91bb82b2eea4cba5063da6013c1d, type: 2}
  - m_RefCount: 1
    m_Data: {fileID: 11400000, guid: 294f35525d7c7be4baefc1542269d027, type: 2}
  - m_RefCount: 1
    m_Data: {fileID: 11400000, guid: 5bffca37706a23e4cada71de830a1e3b, type: 2}
  - m_RefCount: 1
    m_Data: {fileID: 11400000, guid: 23451648892fc7b4e943b3981642e1bd, type: 2}
  - m_RefCount: 1
    m_Data: {fileID: 11400000, guid: e39ed0cc4ffef834b8fca570e6791175, type: 2}
  - m_RefCount: 1
    m_Data: {fileID: 11400000, guid: 9d93094c60c4b1440aac51ee7883bdd5, type: 2}
  - m_RefCount: 1
    m_Data: {fileID: 11400000, guid: 27192c1b384f9774389afd4b17669d6a, type: 2}
  - m_RefCount: 1
    m_Data: {fileID: 11400000, guid: dd2b539316e5b4e4888fb6d694ec2b62, type: 2}
  - m_RefCount: 1
    m_Data: {fileID: 11400000, guid: 2eaf3b9758bb43641bf442d5078a30f1, type: 2}
  - m_RefCount: 1
    m_Data: {fileID: 11400000, guid: 4e2f51f3d2967974895466eda78dc814, type: 2}
  - m_RefCount: 1
    m_Data: {fileID: 11400000, guid: 5319d84140bcfce4cba9a33425b00836, type: 2}
  - m_RefCount: 1
    m_Data: {fileID: 11400000, guid: 2483ed5cf8a864445acb255c56930a74, type: 2}
  - m_RefCount: 1
    m_Data: {fileID: 11400000, guid: e86771468cdeda54690aee6740c682f5, type: 2}
  - m_RefCount: 1
    m_Data: {fileID: 11400000, guid: d690e1995f6b66b458bae2de765a543a, type: 2}
  - m_RefCount: 1
    m_Data: {fileID: 11400000, guid: 1d9684289f415714fa691813d58c3bde, type: 2}
  - m_RefCount: 1
    m_Data: {fileID: 11400000, guid: b3f8678697a229b47bec4645aa2df86c, type: 2}
  - m_RefCount: 1
    m_Data: {fileID: 11400000, guid: c6faea92d81f6d94e95ba95582b66ad5, type: 2}
  - m_RefCount: 1
    m_Data: {fileID: 11400000, guid: 44caa1b2136176d45ad67deabcd659cf, type: 2}
  - m_RefCount: 1
    m_Data: {fileID: 11400000, guid: 260282afdfc37a341b8e406ccf5e1047, type: 2}
  - m_RefCount: 1
    m_Data: {fileID: 11400000, guid: a368199df461bc64e811adc785e2a544, type: 2}
  - m_RefCount: 1
    m_Data: {fileID: 11400000, guid: 70ee0a06ae2d96d4784e4a4ee9743eeb, type: 2}
  - m_RefCount: 1
    m_Data: {fileID: 11400000, guid: 801095d562de53b47b060b6c5863f94c, type: 2}
  - m_RefCount: 1
    m_Data: {fileID: 11400000, guid: e5365b00ef032a84894251bab365831c, type: 2}
  - m_RefCount: 1
    m_Data: {fileID: 11400000, guid: 6bbc980ffdc5713409b99ff96a40271e, type: 2}
  - m_RefCount: 1
    m_Data: {fileID: 11400000, guid: 90c4e3c57859fd84aafa6fcc27d1a46e, type: 2}
  - m_RefCount: 1
    m_Data: {fileID: 11400000, guid: ca4eea688e56e0347b570c380b96a0f8, type: 2}
  - m_RefCount: 1
    m_Data: {fileID: 11400000, guid: 86b364d813e291d4cad623b8be17643a, type: 2}
  - m_RefCount: 1
    m_Data: {fileID: 11400000, guid: dca5e6c23c6174c49b0fa7d7529508fd, type: 2}
  - m_RefCount: 1
    m_Data: {fileID: 11400000, guid: 808219fcb0b39374e992e9f25f792f58, type: 2}
  - m_RefCount: 1
    m_Data: {fileID: 11400000, guid: c8c5c29f5882573478747ab5c172ddbe, type: 2}
  - m_RefCount: 1
    m_Data: {fileID: 11400000, guid: 732a16b7c24c9c6458b3d7f15fa1e28b, type: 2}
  - m_RefCount: 1
    m_Data: {fileID: 11400000, guid: 3d12edcbac0eff44b8c46edd12aba2b8, type: 2}
  - m_RefCount: 1
    m_Data: {fileID: 11400000, guid: 30df89484e676314991bdf91077fae6f, type: 2}
  - m_RefCount: 1
    m_Data: {fileID: 11400000, guid: b0205cd54ea8519499ea6bb1ba7b2611, type: 2}
  - m_RefCount: 1
    m_Data: {fileID: 11400000, guid: d8d84764eff166f4f8cbe949c177a8dd, type: 2}
  - m_RefCount: 1
    m_Data: {fileID: 11400000, guid: 172c5b5e38a78584eb7f6e9a622d0536, type: 2}
  - m_RefCount: 1
    m_Data: {fileID: 11400000, guid: 1b47c9345a00fc940be642f4f8ff4d52, type: 2}
  - m_RefCount: 1
    m_Data: {fileID: 11400000, guid: f926995d75c916f47bcd7b52c932c7e8, type: 2}
  - m_RefCount: 1
    m_Data: {fileID: 11400000, guid: 04037e09e6ba7c94bb885c397d29ab1b, type: 2}
  - m_RefCount: 1
    m_Data: {fileID: 11400000, guid: c820f4e1156df944498ca74c0476fc84, type: 2}
  - m_RefCount: 1
    m_Data: {fileID: 11400000, guid: a293b022522eb1a49b818e65b948b432, type: 2}
  - m_RefCount: 1
    m_Data: {fileID: 11400000, guid: ff5e74e5fc92e8d4b9eafc31a0bc7631, type: 2}
  - m_RefCount: 1
    m_Data: {fileID: 11400000, guid: c2847e608d9e5a14b858e8cfc6726100, type: 2}
  - m_RefCount: 1
    m_Data: {fileID: 11400000, guid: e6f878d3377620d49abec61122cdf339, type: 2}
  - m_RefCount: 1
    m_Data: {fileID: 11400000, guid: 49e7a9938483f754495c5ce76f0272d6, type: 2}
  - m_RefCount: 1
    m_Data: {fileID: 11400000, guid: 5654319c6c53300468f049ff79eec09d, type: 2}
  - m_RefCount: 1
    m_Data: {fileID: 11400000, guid: 4ec948585effba24b8ecb94392c18857, type: 2}
  - m_RefCount: 1
    m_Data: {fileID: 11400000, guid: c59d79e3820fbd142b76ee2fb948898d, type: 2}
  - m_RefCount: 1
    m_Data: {fileID: 11400000, guid: 8348cb1a76beb8b4db3610c42adf23aa, type: 2}
  - m_RefCount: 1
    m_Data: {fileID: 11400000, guid: a162a2a53b6f95e4f985e9bea54c1343, type: 2}
  - m_RefCount: 1
    m_Data: {fileID: 11400000, guid: 6eeebf52f90f17842b19dced12e53bcf, type: 2}
  - m_RefCount: 1
    m_Data: {fileID: 11400000, guid: d4f45971f802c8048a18ddaa7bdc4680, type: 2}
  - m_RefCount: 1
    m_Data: {fileID: 11400000, guid: 85ebf554d3ea252409712c76d9eeadff, type: 2}
  - m_RefCount: 1
    m_Data: {fileID: 11400000, guid: 534bc12eea325de468fbf30abb55cff8, type: 2}
  - m_RefCount: 1
    m_Data: {fileID: 11400000, guid: 42c08ebd33960224186fd4c4118315ec, type: 2}
  - m_RefCount: 1
    m_Data: {fileID: 11400000, guid: b2ba2a8b17ba31d43bad6bd6a220b709, type: 2}
  - m_RefCount: 1
    m_Data: {fileID: 11400000, guid: ff52ad6b7de01314aa0031c7c6246ee4, type: 2}
  - m_RefCount: 1
    m_Data: {fileID: 11400000, guid: d261c49d63d4bf54cb89e3047ec03425, type: 2}
  m_TileSpriteArray:
  - m_RefCount: 1
    m_Data: {fileID: 123913103, guid: 8db93fce0d345b347a527d8614fdfadc, type: 3}
  - m_RefCount: 1
    m_Data: {fileID: 337632494, guid: 8db93fce0d345b347a527d8614fdfadc, type: 3}
  - m_RefCount: 1
    m_Data: {fileID: -360290534, guid: 8db93fce0d345b347a527d8614fdfadc, type: 3}
  - m_RefCount: 1
    m_Data: {fileID: -2020218273, guid: 8db93fce0d345b347a527d8614fdfadc, type: 3}
  - m_RefCount: 1
    m_Data: {fileID: -639910296, guid: 8db93fce0d345b347a527d8614fdfadc, type: 3}
  - m_RefCount: 1
    m_Data: {fileID: -783027342, guid: 8db93fce0d345b347a527d8614fdfadc, type: 3}
  - m_RefCount: 1
    m_Data: {fileID: 742557208, guid: 8db93fce0d345b347a527d8614fdfadc, type: 3}
  - m_RefCount: 1
    m_Data: {fileID: -343560422, guid: 8db93fce0d345b347a527d8614fdfadc, type: 3}
  - m_RefCount: 1
    m_Data: {fileID: -2071907432, guid: 8db93fce0d345b347a527d8614fdfadc, type: 3}
  - m_RefCount: 1
    m_Data: {fileID: 372113028, guid: 8db93fce0d345b347a527d8614fdfadc, type: 3}
  - m_RefCount: 1
    m_Data: {fileID: -728415876, guid: 8db93fce0d345b347a527d8614fdfadc, type: 3}
  - m_RefCount: 1
    m_Data: {fileID: -1493371426, guid: 8db93fce0d345b347a527d8614fdfadc, type: 3}
  - m_RefCount: 1
    m_Data: {fileID: 2026035314, guid: 8db93fce0d345b347a527d8614fdfadc, type: 3}
  - m_RefCount: 1
    m_Data: {fileID: -1514435161, guid: 8db93fce0d345b347a527d8614fdfadc, type: 3}
  - m_RefCount: 1
    m_Data: {fileID: -235993911, guid: 8db93fce0d345b347a527d8614fdfadc, type: 3}
  - m_RefCount: 1
    m_Data: {fileID: 811413092, guid: 8db93fce0d345b347a527d8614fdfadc, type: 3}
  - m_RefCount: 1
    m_Data: {fileID: -913620040, guid: 8db93fce0d345b347a527d8614fdfadc, type: 3}
  - m_RefCount: 1
    m_Data: {fileID: -1750893179, guid: 8db93fce0d345b347a527d8614fdfadc, type: 3}
  - m_RefCount: 1
    m_Data: {fileID: -337097422, guid: 8db93fce0d345b347a527d8614fdfadc, type: 3}
  - m_RefCount: 1
    m_Data: {fileID: 1921916102, guid: 8db93fce0d345b347a527d8614fdfadc, type: 3}
  - m_RefCount: 1
    m_Data: {fileID: -299557679, guid: 8db93fce0d345b347a527d8614fdfadc, type: 3}
  - m_RefCount: 1
    m_Data: {fileID: -1291043213, guid: 8db93fce0d345b347a527d8614fdfadc, type: 3}
  - m_RefCount: 1
    m_Data: {fileID: 1065725096, guid: 8db93fce0d345b347a527d8614fdfadc, type: 3}
  - m_RefCount: 1
    m_Data: {fileID: -800113642, guid: 8db93fce0d345b347a527d8614fdfadc, type: 3}
  - m_RefCount: 1
    m_Data: {fileID: -1718332045, guid: 8db93fce0d345b347a527d8614fdfadc, type: 3}
  - m_RefCount: 1
    m_Data: {fileID: 313027677, guid: 8db93fce0d345b347a527d8614fdfadc, type: 3}
  - m_RefCount: 1
    m_Data: {fileID: -1797200242, guid: 8db93fce0d345b347a527d8614fdfadc, type: 3}
  - m_RefCount: 1
    m_Data: {fileID: -1522588555, guid: 8db93fce0d345b347a527d8614fdfadc, type: 3}
  - m_RefCount: 1
    m_Data: {fileID: 398498240, guid: 8db93fce0d345b347a527d8614fdfadc, type: 3}
  - m_RefCount: 1
    m_Data: {fileID: -1899467742, guid: 8db93fce0d345b347a527d8614fdfadc, type: 3}
  - m_RefCount: 1
    m_Data: {fileID: -1644731815, guid: 8db93fce0d345b347a527d8614fdfadc, type: 3}
  - m_RefCount: 1
    m_Data: {fileID: 1013453648, guid: 8db93fce0d345b347a527d8614fdfadc, type: 3}
  - m_RefCount: 1
    m_Data: {fileID: 1732857241, guid: 8db93fce0d345b347a527d8614fdfadc, type: 3}
  - m_RefCount: 1
    m_Data: {fileID: -611237443, guid: 8db93fce0d345b347a527d8614fdfadc, type: 3}
  - m_RefCount: 1
    m_Data: {fileID: -392880820, guid: 8db93fce0d345b347a527d8614fdfadc, type: 3}
  - m_RefCount: 1
    m_Data: {fileID: -1300668470, guid: 8db93fce0d345b347a527d8614fdfadc, type: 3}
  - m_RefCount: 1
    m_Data: {fileID: 239767512, guid: 8db93fce0d345b347a527d8614fdfadc, type: 3}
  - m_RefCount: 1
    m_Data: {fileID: 1637231595, guid: 8db93fce0d345b347a527d8614fdfadc, type: 3}
  - m_RefCount: 1
    m_Data: {fileID: -870552203, guid: 8db93fce0d345b347a527d8614fdfadc, type: 3}
  - m_RefCount: 1
    m_Data: {fileID: -445221764, guid: 8db93fce0d345b347a527d8614fdfadc, type: 3}
  - m_RefCount: 1
    m_Data: {fileID: 1163024239, guid: 8db93fce0d345b347a527d8614fdfadc, type: 3}
  - m_RefCount: 1
    m_Data: {fileID: 436031077, guid: 8db93fce0d345b347a527d8614fdfadc, type: 3}
  - m_RefCount: 1
    m_Data: {fileID: -450076541, guid: 8db93fce0d345b347a527d8614fdfadc, type: 3}
  - m_RefCount: 1
    m_Data: {fileID: -1548268589, guid: 8db93fce0d345b347a527d8614fdfadc, type: 3}
  - m_RefCount: 1
    m_Data: {fileID: 2062134518, guid: 8db93fce0d345b347a527d8614fdfadc, type: 3}
  - m_RefCount: 1
    m_Data: {fileID: 906817231, guid: 8db93fce0d345b347a527d8614fdfadc, type: 3}
  - m_RefCount: 1
    m_Data: {fileID: -1838929415, guid: 8db93fce0d345b347a527d8614fdfadc, type: 3}
  - m_RefCount: 1
    m_Data: {fileID: -530501171, guid: 8db93fce0d345b347a527d8614fdfadc, type: 3}
  - m_RefCount: 1
    m_Data: {fileID: 1559103850, guid: 8db93fce0d345b347a527d8614fdfadc, type: 3}
  - m_RefCount: 1
    m_Data: {fileID: -573299860, guid: 8db93fce0d345b347a527d8614fdfadc, type: 3}
  - m_RefCount: 1
    m_Data: {fileID: 1878946049, guid: 8db93fce0d345b347a527d8614fdfadc, type: 3}
  - m_RefCount: 1
    m_Data: {fileID: 2008744281, guid: 8db93fce0d345b347a527d8614fdfadc, type: 3}
  - m_RefCount: 1
    m_Data: {fileID: -476475778, guid: 8db93fce0d345b347a527d8614fdfadc, type: 3}
  - m_RefCount: 1
    m_Data: {fileID: -110012985, guid: 8db93fce0d345b347a527d8614fdfadc, type: 3}
  - m_RefCount: 1
    m_Data: {fileID: -410359287, guid: 8db93fce0d345b347a527d8614fdfadc, type: 3}
  - m_RefCount: 1
    m_Data: {fileID: 1058198518, guid: 8db93fce0d345b347a527d8614fdfadc, type: 3}
  - m_RefCount: 1
    m_Data: {fileID: 313691170, guid: 8db93fce0d345b347a527d8614fdfadc, type: 3}
  - m_RefCount: 1
    m_Data: {fileID: 392420454, guid: 8db93fce0d345b347a527d8614fdfadc, type: 3}
  - m_RefCount: 1
    m_Data: {fileID: -1840914733, guid: 8db93fce0d345b347a527d8614fdfadc, type: 3}
  - m_RefCount: 1
    m_Data: {fileID: 296560624, guid: 8db93fce0d345b347a527d8614fdfadc, type: 3}
  - m_RefCount: 1
    m_Data: {fileID: -691568553, guid: 8db93fce0d345b347a527d8614fdfadc, type: 3}
  - m_RefCount: 1
    m_Data: {fileID: 1472412574, guid: 8db93fce0d345b347a527d8614fdfadc, type: 3}
  - m_RefCount: 1
    m_Data: {fileID: -1846020223, guid: 8db93fce0d345b347a527d8614fdfadc, type: 3}
  - m_RefCount: 1
    m_Data: {fileID: 1754256859, guid: 8db93fce0d345b347a527d8614fdfadc, type: 3}
  - m_RefCount: 1
    m_Data: {fileID: 1898622410, guid: 8db93fce0d345b347a527d8614fdfadc, type: 3}
  - m_RefCount: 1
    m_Data: {fileID: 1342515074, guid: 8db93fce0d345b347a527d8614fdfadc, type: 3}
  - m_RefCount: 1
    m_Data: {fileID: 1721653137, guid: 8db93fce0d345b347a527d8614fdfadc, type: 3}
  - m_RefCount: 1
    m_Data: {fileID: -2072350450, guid: 8db93fce0d345b347a527d8614fdfadc, type: 3}
  - m_RefCount: 1
    m_Data: {fileID: 2034831536, guid: 8db93fce0d345b347a527d8614fdfadc, type: 3}
  - m_RefCount: 1
    m_Data: {fileID: -395293358, guid: 8db93fce0d345b347a527d8614fdfadc, type: 3}
  - m_RefCount: 1
    m_Data: {fileID: -427373294, guid: 8db93fce0d345b347a527d8614fdfadc, type: 3}
  - m_RefCount: 1
    m_Data: {fileID: 1739229403, guid: 8db93fce0d345b347a527d8614fdfadc, type: 3}
  - m_RefCount: 1
    m_Data: {fileID: -2044746279, guid: 8db93fce0d345b347a527d8614fdfadc, type: 3}
  - m_RefCount: 1
    m_Data: {fileID: -1288796066, guid: 8db93fce0d345b347a527d8614fdfadc, type: 3}
  - m_RefCount: 1
    m_Data: {fileID: -1378858026, guid: 8db93fce0d345b347a527d8614fdfadc, type: 3}
  - m_RefCount: 1
    m_Data: {fileID: 1212426931, guid: 8db93fce0d345b347a527d8614fdfadc, type: 3}
  - m_RefCount: 1
    m_Data: {fileID: 1343138489, guid: 8db93fce0d345b347a527d8614fdfadc, type: 3}
  - m_RefCount: 1
    m_Data: {fileID: -1075376449, guid: 8db93fce0d345b347a527d8614fdfadc, type: 3}
  - m_RefCount: 1
    m_Data: {fileID: -1056151403, guid: 8db93fce0d345b347a527d8614fdfadc, type: 3}
  - m_RefCount: 1
    m_Data: {fileID: 1214650076, guid: 8db93fce0d345b347a527d8614fdfadc, type: 3}
  - m_RefCount: 1
    m_Data: {fileID: 507648587, guid: 8db93fce0d345b347a527d8614fdfadc, type: 3}
  - m_RefCount: 1
    m_Data: {fileID: -255178175, guid: 8db93fce0d345b347a527d8614fdfadc, type: 3}
  - m_RefCount: 1
    m_Data: {fileID: 1872499314, guid: 8db93fce0d345b347a527d8614fdfadc, type: 3}
  - m_RefCount: 1
    m_Data: {fileID: 1993475447, guid: 8db93fce0d345b347a527d8614fdfadc, type: 3}
  - m_RefCount: 1
    m_Data: {fileID: -2039312947, guid: 8db93fce0d345b347a527d8614fdfadc, type: 3}
  - m_RefCount: 1
    m_Data: {fileID: 285197472, guid: 8db93fce0d345b347a527d8614fdfadc, type: 3}
  - m_RefCount: 1
    m_Data: {fileID: 1567291739, guid: 8db93fce0d345b347a527d8614fdfadc, type: 3}
  - m_RefCount: 1
    m_Data: {fileID: 1175019674, guid: 8db93fce0d345b347a527d8614fdfadc, type: 3}
  - m_RefCount: 1
    m_Data: {fileID: 1775781066, guid: 8db93fce0d345b347a527d8614fdfadc, type: 3}
  - m_RefCount: 1
    m_Data: {fileID: -1862558575, guid: 8db93fce0d345b347a527d8614fdfadc, type: 3}
  - m_RefCount: 1
    m_Data: {fileID: -263119090, guid: 8db93fce0d345b347a527d8614fdfadc, type: 3}
  - m_RefCount: 1
    m_Data: {fileID: 1804775782, guid: 8db93fce0d345b347a527d8614fdfadc, type: 3}
  - m_RefCount: 1
    m_Data: {fileID: 1878522193, guid: 8db93fce0d345b347a527d8614fdfadc, type: 3}
  - m_RefCount: 1
    m_Data: {fileID: -392447146, guid: 8db93fce0d345b347a527d8614fdfadc, type: 3}
  - m_RefCount: 1
    m_Data: {fileID: -767170698, guid: 8db93fce0d345b347a527d8614fdfadc, type: 3}
  - m_RefCount: 1
    m_Data: {fileID: -333032451, guid: 8db93fce0d345b347a527d8614fdfadc, type: 3}
  - m_RefCount: 1
    m_Data: {fileID: -1335867118, guid: 8db93fce0d345b347a527d8614fdfadc, type: 3}
  - m_RefCount: 1
    m_Data: {fileID: 542486888, guid: 8db93fce0d345b347a527d8614fdfadc, type: 3}
  - m_RefCount: 1
    m_Data: {fileID: -1696127506, guid: 8db93fce0d345b347a527d8614fdfadc, type: 3}
  - m_RefCount: 1
    m_Data: {fileID: 356032263, guid: 8db93fce0d345b347a527d8614fdfadc, type: 3}
  - m_RefCount: 1
    m_Data: {fileID: 1121563282, guid: 8db93fce0d345b347a527d8614fdfadc, type: 3}
  - m_RefCount: 1
    m_Data: {fileID: 576735790, guid: 8db93fce0d345b347a527d8614fdfadc, type: 3}
  - m_RefCount: 1
    m_Data: {fileID: -1432109750, guid: 8db93fce0d345b347a527d8614fdfadc, type: 3}
  - m_RefCount: 1
    m_Data: {fileID: -1119922241, guid: 8db93fce0d345b347a527d8614fdfadc, type: 3}
  - m_RefCount: 1
    m_Data: {fileID: 219261633, guid: 8db93fce0d345b347a527d8614fdfadc, type: 3}
  - m_RefCount: 1
    m_Data: {fileID: -1902394287, guid: 8db93fce0d345b347a527d8614fdfadc, type: 3}
  - m_RefCount: 1
    m_Data: {fileID: -991573351, guid: 8db93fce0d345b347a527d8614fdfadc, type: 3}
  - m_RefCount: 1
    m_Data: {fileID: -1145341271, guid: 8db93fce0d345b347a527d8614fdfadc, type: 3}
  - m_RefCount: 1
    m_Data: {fileID: 1941263661, guid: 8db93fce0d345b347a527d8614fdfadc, type: 3}
  - m_RefCount: 1
    m_Data: {fileID: 454616860, guid: 8db93fce0d345b347a527d8614fdfadc, type: 3}
  - m_RefCount: 1
    m_Data: {fileID: -2141088651, guid: 8db93fce0d345b347a527d8614fdfadc, type: 3}
  - m_RefCount: 1
    m_Data: {fileID: 770004200, guid: 8db93fce0d345b347a527d8614fdfadc, type: 3}
  - m_RefCount: 1
    m_Data: {fileID: 572342169, guid: 8db93fce0d345b347a527d8614fdfadc, type: 3}
  - m_RefCount: 1
    m_Data: {fileID: 927503385, guid: 8db93fce0d345b347a527d8614fdfadc, type: 3}
  - m_RefCount: 1
    m_Data: {fileID: -1991218768, guid: 8db93fce0d345b347a527d8614fdfadc, type: 3}
  - m_RefCount: 1
    m_Data: {fileID: -1087267250, guid: 8db93fce0d345b347a527d8614fdfadc, type: 3}
  - m_RefCount: 1
    m_Data: {fileID: 1694388914, guid: 8db93fce0d345b347a527d8614fdfadc, type: 3}
  m_TileMatrixArray:
  - m_RefCount: 117
    m_Data:
      e00: 1
      e01: 0
      e02: 0
      e03: 0
      e10: 0
      e11: 1
      e12: 0
      e13: 0
      e20: 0
      e21: 0
      e22: 1
      e23: 0
      e30: 0
      e31: 0
      e32: 0
      e33: 1
  m_TileColorArray:
  - m_RefCount: 117
    m_Data: {r: 1, g: 1, b: 1, a: 1}
  m_TileObjectToInstantiateArray: []
  m_AnimationFrameRate: 1
  m_Color: {r: 1, g: 1, b: 1, a: 1}
  m_Origin: {x: -1, y: 0, z: 0}
  m_Size: {x: 16, y: 15, z: 1}
  m_TileAnchor: {x: 0.5, y: 0.5, z: 0}
  m_TileOrientation: 0
  m_TileOrientationMatrix:
    e00: 1
    e01: 0
    e02: 0
    e03: 0
    e10: 0
    e11: 1
    e12: 0
    e13: 0
    e20: 0
    e21: 0
    e22: 1
    e23: 0
    e30: 0
    e31: 0
    e32: 0
    e33: 1
--- !u!483693784 &4399346844051129889
TilemapRenderer:
  m_ObjectHideFlags: 0
  m_CorrespondingSourceObject: {fileID: 0}
  m_PrefabInstance: {fileID: 0}
  m_PrefabAsset: {fileID: 0}
  m_GameObject: {fileID: 4553507333484610433}
  m_Enabled: 1
  m_CastShadows: 0
  m_ReceiveShadows: 0
  m_DynamicOccludee: 0
  m_StaticShadowCaster: 0
  m_MotionVectors: 1
  m_LightProbeUsage: 0
  m_ReflectionProbeUsage: 0
  m_RayTracingMode: 0
  m_RayTraceProcedural: 0
  m_RenderingLayerMask: 1
  m_RendererPriority: 0
  m_Materials:
  - {fileID: 10754, guid: 0000000000000000f000000000000000, type: 0}
  m_StaticBatchInfo:
    firstSubMesh: 0
    subMeshCount: 0
  m_StaticBatchRoot: {fileID: 0}
  m_ProbeAnchor: {fileID: 0}
  m_LightProbeVolumeOverride: {fileID: 0}
  m_ScaleInLightmap: 1
  m_ReceiveGI: 1
  m_PreserveUVs: 0
  m_IgnoreNormalsForChartDetection: 0
  m_ImportantGI: 0
  m_StitchLightmapSeams: 1
  m_SelectedEditorRenderState: 0
  m_MinimumChartSize: 4
  m_AutoUVMaxDistance: 0.5
  m_AutoUVMaxAngle: 89
  m_LightmapParameters: {fileID: 0}
  m_SortingLayerID: 0
  m_SortingLayer: 0
  m_SortingOrder: 0
  m_ChunkSize: {x: 32, y: 32, z: 32}
  m_ChunkCullingBounds: {x: 0, y: 0, z: 0}
  m_MaxChunkCount: 16
  m_MaxFrameAge: 16
  m_SortOrder: 0
  m_Mode: 0
  m_DetectChunkCullingBounds: 0
  m_MaskInteraction: 0
--- !u!1 &5968724784556358820
GameObject:
  m_ObjectHideFlags: 0
  m_CorrespondingSourceObject: {fileID: 0}
  m_PrefabInstance: {fileID: 0}
  m_PrefabAsset: {fileID: 0}
  serializedVersion: 6
  m_Component:
  - component: {fileID: 6627367663701524034}
  - component: {fileID: 2676492410523266998}
  m_Layer: 0
  m_Name: dungeon
  m_TagString: Untagged
  m_Icon: {fileID: 0}
  m_NavMeshLayer: 0
  m_StaticEditorFlags: 0
  m_IsActive: 1
--- !u!4 &6627367663701524034
Transform:
  m_ObjectHideFlags: 0
  m_CorrespondingSourceObject: {fileID: 0}
  m_PrefabInstance: {fileID: 0}
  m_PrefabAsset: {fileID: 0}
  m_GameObject: {fileID: 5968724784556358820}
  m_LocalRotation: {x: 0, y: 0, z: 0, w: 1}
  m_LocalPosition: {x: 0, y: 0, z: 0}
  m_LocalScale: {x: 1, y: 1, z: 1}
  m_ConstrainProportionsScale: 0
  m_Children:
  - {fileID: 6171707730619233126}
  m_Father: {fileID: 0}
  m_RootOrder: 0
  m_LocalEulerAnglesHint: {x: 0, y: 0, z: 0}
--- !u!156049354 &2676492410523266998
Grid:
  m_ObjectHideFlags: 0
  m_CorrespondingSourceObject: {fileID: 0}
  m_PrefabInstance: {fileID: 0}
  m_PrefabAsset: {fileID: 0}
  m_GameObject: {fileID: 5968724784556358820}
  m_Enabled: 1
  m_CellSize: {x: 1, y: 1, z: 0}
  m_CellGap: {x: 0, y: 0, z: 0}
  m_CellLayout: 0
  m_CellSwizzle: 0
--- !u!114 &5392311485112743597
MonoBehaviour:
  m_ObjectHideFlags: 0
  m_CorrespondingSourceObject: {fileID: 0}
  m_PrefabInstance: {fileID: 0}
  m_PrefabAsset: {fileID: 0}
  m_GameObject: {fileID: 0}
  m_Enabled: 1
  m_EditorHideFlags: 0
  m_Script: {fileID: 12395, guid: 0000000000000000e000000000000000, type: 0}
  m_Name: Palette Settings
  m_EditorClassIdentifier: 
  cellSizing: 0
  m_TransparencySortMode: 0
  m_TransparencySortAxis: {x: 0, y: 0, z: 1}
